…
sel500  <- data_items %>%
           group_by(id_k) %>%
           sample_n(700, weights = ws, replace = FALSE) %>%
           ungroup() %>%           
           mutate(sel500 = 1) %>%
           dplyr::select(id_i, id_k, sel500)

#------------------------------------------------
# display table of selecion
#------------------------------------------------

dplyr::count(sel500, id_k, sel500)
```

    ## # A tibble: 24 × 3
    ##     id_k sel500     n
    ##    <dbl>  <dbl> <int>
    ##  1     1      1   700
    ##  2     2      1   700
    ##  3     3      1   700
    ##  4     4      1   700
    ##  5     5      1   700
    ##  6     6      1   700
    ##  7     7      1   700
    ##  8     8      1   700
    ##  9     9      1   700
    ## 10    10      1   700
    ## # ℹ 14 more rows
…
